{
  "name": "Monitora Tocantins",
  "short_name": "Monitora",
  "icons": [{
      "src": "/icon/apple-icon-144x144.png",
      "sizes": "144x144",
      "type": "image/png"
    }, {
      "src": "/icon/apple-icon-152x152.png",
      "sizes": "152x152",
      "type": "image/png"
    }, {
      "src": "/icon/android-icon-192x192",
      "sizes": "192x192",
      "type": "image/png"
    }],
  "start_url": "publico/secretario_pre?code=291090260711060196",
  "display": "standalone",
  "background_color": "#fffff",
  "theme_color": "#00bcd4"
}