[{"name":"AGENCIA DE DEFESA AGROPECUARIA DO ESTADO DO TOCANTINS","id":1},
{"name":"AGENCIA TOCANTINENSE DE SANEAMENTO - ATS","id":2},
{"name":"CORPO DE BOMBEIROS MILITAR DO ESTADO DO TOCANTINS - CBMTO","id":3},
{"name":"FUNDACAO UNIVERSIDADE DO TOCANTINS - UNITINS","id":4},
{"name":"INSTITUTO DE DESENVOLVIMENTO RURAL DO TOCANTINS - RURALTINS","id":5},
{"name":"INSTITUTO NATUREZA DO TOCANTINS - NATURATINS","id":6},
{"name":"POLICIA MILITAR DO ESTADO DO TOCANTINS","id":7},
{"name":"SEC. DESENV. ECON. C.T., TUR. E CULTURA","id":8},
{"name":"SECRETARIA DA EDUCAÇÃO, JUVENTUDE E ESPORTES","id":9},
{"name":"SECRETARIA DA SEGURANCA PUBLICA - S.S.P.","id":10},
{"name":"SECRETARIA DE DEFESA E PROTECAO SOCIAL","id":11},
{"name":"SECRETARIA DO DESENVOLVIMENTO DA AGRICULTURA E PECUARIA","id":12},
{"name":"SECRETARIA DO MEIO AMBIENTE E DESENVOLVIMENTO SUSTENTAVEL","id":13},
{"name":"SECRETARIA DO PLANEJAMENTO E ORCAMENTO","id":14},
{"name":"SECRETARIA DO TRABALHO E DA ASSISTENCIA SOCIAL","id":15},
{"name":"TOCANTINS SECRETARIA DE ESTADO DE SAUDE","id":16}]